…
# Or the the development version from GitHub:
# install.packages("devtools")
devtools::install_github("tidyverse/tibble")
```

Usage
-----

Create a tibble from an existing object with `as_tibble()`:

``` r
library(tibble)
as_tibble(iris)
#> # A tibble: 150 × 5
#>    Sepal.Length Sepal.Width Petal.Length Petal.Width Species
#>           <dbl>       <dbl>        <dbl>       <dbl>  <fctr>
#> 1           5.1         3.5          1.4         0.2  setosa
#> 2           4.9         3.0          1.4         0.2  setosa
#> 3           4.7         3.2          1.3         0.2  setosa
#> 4           4.6         3.1          1.5         0.2  setosa
#> 5           5.0         3.6          1.4         0.2  setosa
#> 6           5.4         3.9          1.7         0.4  setosa
#> 7           4.6         3.4          1.4         0.3  setosa
#> 8           5.0         3.4          1.5         0.2  setosa
#> 9           4.4         2.9          1.4         0.2  setosa
#> 10          4.9         3.1          1.5         0.1  setosa
#> # ... with 140 more rows
```
…
Tibbles vs data frames
----------------------

There are two main differences in the usage of a data frame vs a tibble: printing, and subsetting.

Tibbles have a refined print method that shows only the first 10 rows, and all the columns that fit on screen. This makes it much easier to work with large data. In addition to its name, each column reports its type, a nice feature borrowed from `str()`:

``` r
library(nycflights13)
flights
#> # A tibble: 336,776 × 19
#>     year month   day dep_time sched_dep_time dep_delay arr_time
#>    <int> <int> <int>    <int>          <int>     <dbl>    <int>
#> 1   2013     1     1      517            515         2      830
#> 2   2013     1     1      533            529         4      850
#> 3   2013     1     1      542            540         2      923
#> 4   2013     1     1      544            545        -1     1004
#> 5   2013     1     1      554            600        -6      812
#> 6   2013     1     1      554            558        -4      740
#> 7   2013     1     1      555            600        -5      913
#> 8   2013     1     1      557            600        -3      709
#> 9   2013     1     1      557            600        -3      838
#> 10  2013     1     1      558            600        -2      753
#> # ... with 336,766 more rows, and 12 more variables: sched_arr_time <int>,
#> #   arr_delay <dbl>, carrier <chr>, flight <int>, tailnum <chr>,
#> #   origin <chr>, dest <chr>, air_time <dbl>, distance <dbl>, hour <dbl>,
#> #   minute <dbl>, time_hour <dttm>
```

Tibbles are strict about subsetting. If you try to access a variable that does not exist via `$`, you'll get a warning:

``` r
flights$yea
#> Warning: Unknown or uninitialised column: 'yea'.
#> NULL
```

Tibbles also clearly delineate `[` and `[[`: `[` always returns another tibble, `[[` always returns a vector. No more `drop = FALSE`!

``` r
flights[, "dest"]
#> # A tibble: 336,776 × 1
#>     dest
#>    <chr>
#> 1    IAH
#> 2    IAH
#> 3    MIA
#> 4    BQN
#> 5    ATL
#> 6    ORD
#> 7    FLL
#> 8    IAD
#> 9    MCO
#> 10   ORD
#> # ... with 336,766 more rows
```
…
