…
> 
> cleanEx()
> nameEx("formatting")
> ### * formatting
> 
> flush(stderr()); flush(stdout())
> 
> ### Name: formatting
> ### Title: Printing tibbles
> ### Aliases: formatting print.tbl format.tbl print.tbl_df format.tbl_df
> 
> ### ** Examples
> 
> print(as_tibble(mtcars))
# A tibble: 32 × 11
     mpg   cyl  disp    hp  drat    wt  qsec    vs    am  gear  carb
   <dbl> <dbl> <dbl> <dbl> <dbl> <dbl> <dbl> <dbl> <dbl> <dbl> <dbl>
 1  21       6  160    110  3.9   2.62  16.5     0     1     4     4
 2  21       6  160    110  3.9   2.88  17.0     0     1     4     4
 3  22.8     4  108     93  3.85  2.32  18.6     1     1     4     1
 4  21.4     6  258    110  3.08  3.22  19.4     1     0     3     1
 5  18.7     8  360    175  3.15  3.44  17.0     0     0     3     2
 6  18.1     6  225    105  2.76  3.46  20.2     1     0     3     1
 7  14.3     8  360    245  3.21  3.57  15.8     0     0     3     4
 8  24.4     4  147.    62  3.69  3.19  20       1     0     4     2
 9  22.8     4  141.    95  3.92  3.15  22.9     1     0     4     2
10  19.2     6  168.   123  3.92  3.44  18.3     1     0     4     4
# ℹ 22 more rows
> print(as_tibble(mtcars), n = 1)
# A tibble: 32 × 11
    mpg   cyl  disp    hp  drat    wt  qsec    vs    am  gear  carb
  <dbl> <dbl> <dbl> <dbl> <dbl> <dbl> <dbl> <dbl> <dbl> <dbl> <dbl>
1    21     6   160   110   3.9  2.62  16.5     0     1     4     4
# ℹ 31 more rows
> print(as_tibble(mtcars), n = 3)
# A tibble: 32 × 11
    mpg   cyl  disp    hp  drat    wt  qsec    vs    am  gear  carb
  <dbl> <dbl> <dbl> <dbl> <dbl> <dbl> <dbl> <dbl> <dbl> <dbl> <dbl>
1  21       6   160   110  3.9   2.62  16.5     0     1     4     4
2  21       6   160   110  3.9   2.88  17.0     0     1     4     4
3  22.8     4   108    93  3.85  2.32  18.6     1     1     4     1
# ℹ 29 more rows
…
• `gear` -> `gear...10`
• `carb` -> `carb...11`
• `mpg` -> `mpg...12`
• `cyl` -> `cyl...13`
• `disp` -> `disp...14`
• `hp` -> `hp...15`
• `drat` -> `drat...16`
• `wt` -> `wt...17`
• `qsec` -> `qsec...18`
• `vs` -> `vs...19`
• `am` -> `am...20`
• `gear` -> `gear...21`
• `carb` -> `carb...22`
> print(mtcars2, n = 25, max_extra_cols = 3)
# A tibble: 32 × 22
   mpg...1 cyl...2 disp...3 hp...4 drat...5 wt...6 qsec...7 vs...8 am...9
     <dbl>   <dbl>    <dbl>  <dbl>    <dbl>  <dbl>    <dbl>  <dbl>  <dbl>
 1    21         6    160      110     3.9    2.62     16.5      0      1
 2    21         6    160      110     3.9    2.88     17.0      0      1
 3    22.8       4    108       93     3.85   2.32     18.6      1      1
 4    21.4       6    258      110     3.08   3.22     19.4      1      0
 5    18.7       8    360      175     3.15   3.44     17.0      0      0
 6    18.1       6    225      105     2.76   3.46     20.2      1      0
 7    14.3       8    360      245     3.21   3.57     15.8      0      0
 8    24.4       4    147.      62     3.69   3.19     20        1      0
 9    22.8       4    141.      95     3.92   3.15     22.9      1      0
10    19.2       6    168.     123     3.92   3.44     18.3      1      0
11    17.8       6    168.     123     3.92   3.44     18.9      1      0
12    16.4       8    276.     180     3.07   4.07     17.4      0      0
13    17.3       8    276.     180     3.07   3.73     17.6      0      0
14    15.2       8    276.     180     3.07   3.78     18        0      0
15    10.4       8    472      205     2.93   5.25     18.0      0      0
16    10.4       8    460      215     3      5.42     17.8      0      0
17    14.7       8    440      230     3.23   5.34     17.4      0      0
18    32.4       4     78.7     66     4.08   2.2      19.5      1      1
19    30.4       4     75.7     52     4.93   1.62     18.5      1      1
20    33.9       4     71.1     65     4.22   1.84     19.9      1      1
21    21.5       4    120.      97     3.7    2.46     20.0      1      0
22    15.5       8    318      150     2.76   3.52     16.9      0      0
23    15.2       8    304      150     3.15   3.44     17.3      0      0
24    13.3       8    350      245     3.73   3.84     15.4      0      0
25    19.2       8    400      175     3.08   3.84     17.0      0      0
# ℹ 7 more rows
# ℹ 13 more variables: gear...10 <dbl>, carb...11 <dbl>, mpg...12 <dbl>, …
> 
> ## Don't show: 
> if (requireNamespace("nycflights13", quietly = TRUE)) withAutoprint({ # examplesIf
+ ## End(Don't show)
+ print(nycflights13::flights, max_footer_lines = 1)
+ print(nycflights13::flights, width = Inf)
+ ## Don't show: 
+ }) # examplesIf
> print(nycflights13::flights, max_footer_lines = 1)
# A tibble: 336,776 × 19
    year month   day dep_time sched_dep_time dep_delay arr_time sched_arr_time
   <int> <int> <int>    <int>          <int>     <dbl>    <int>          <int>
 1  2013     1     1      517            515         2      830            819
 2  2013     1     1      533            529         4      850            830
 3  2013     1     1      542            540         2      923            850
 4  2013     1     1      544            545        -1     1004           1022
 5  2013     1     1      554            600        -6      812            837
 6  2013     1     1      554            558        -4      740            728
 7  2013     1     1      555            600        -5      913            854
 8  2013     1     1      557            600        -3      709            723
 9  2013     1     1      557            600        -3      838            846
10  2013     1     1      558            600        -2      753            745
# ℹ 336,766 more rows
> print(nycflights13::flights, width = Inf)
# A tibble: 336,776 × 19
    year month   day dep_time sched_dep_time dep_delay arr_time sched_arr_time
   <int> <int> <int>    <int>          <int>     <dbl>    <int>          <int>
 1  2013     1     1      517            515         2      830            819
 2  2013     1     1      533            529         4      850            830
 3  2013     1     1      542            540         2      923            850
 4  2013     1     1      544            545        -1     1004           1022
 5  2013     1     1      554            600        -6      812            837
 6  2013     1     1      554            558        -4      740            728
 7  2013     1     1      555            600        -5      913            854
 8  2013     1     1      557            600        -3      709            723
 9  2013     1     1      557            600        -3      838            846
10  2013     1     1      558            600        -2      753            745
   arr_delay carrier flight tailnum origin dest  air_time distance  hour minute
       <dbl> <chr>    <int> <chr>   <chr>  <chr>    <dbl>    <dbl> <dbl>  <dbl>
 1        11 UA        1545 N14228  EWR    IAH        227     1400     5     15
 2        20 UA        1714 N24211  LGA    IAH        227     1416     5     29
 3        33 AA        1141 N619AA  JFK    MIA        160     1089     5     40
 4       -18 B6         725 N804JB  JFK    BQN        183     1576     5     45
 5       -25 DL         461 N668DN  LGA    ATL        116      762     6      0
 6        12 UA        1696 N39463  EWR    ORD        150      719     5     58
 7        19 B6         507 N516JB  EWR    FLL        158     1065     6      0
 8       -14 EV        5708 N829AS  LGA    IAD         53      229     6      0
 9        -8 B6          79 N593JB  JFK    MCO        140      944     6      0
10         8 AA         301 N3ALAA  LGA    ORD        138      733     6      0
   time_hour          
   <dttm>             
 1 2013-01-01 05:00:00
 2 2013-01-01 05:00:00
 3 2013-01-01 05:00:00
 4 2013-01-01 05:00:00
 5 2013-01-01 06:00:00
 6 2013-01-01 05:00:00
 7 2013-01-01 06:00:00
 8 2013-01-01 06:00:00
 9 2013-01-01 06:00:00
10 2013-01-01 06:00:00
# ℹ 336,766 more rows
…
> 
> # Detect row names ----------------------------------------------------
> has_rownames(mtcars)
[1] TRUE
> has_rownames(trees)
[1] FALSE
> 
> # Remove row names ----------------------------------------------------
> remove_rownames(mtcars) %>% has_rownames()
[1] FALSE
> 
> # Convert between row names and column --------------------------------
> mtcars_tbl <- rownames_to_column(mtcars, var = "car") %>% as_tibble()
> mtcars_tbl
# A tibble: 32 × 12
   car           mpg   cyl  disp    hp  drat    wt  qsec    vs    am  gear  carb
   <chr>       <dbl> <dbl> <dbl> <dbl> <dbl> <dbl> <dbl> <dbl> <dbl> <dbl> <dbl>
 1 Mazda RX4    21       6  160    110  3.9   2.62  16.5     0     1     4     4
 2 Mazda RX4 …  21       6  160    110  3.9   2.88  17.0     0     1     4     4
 3 Datsun 710   22.8     4  108     93  3.85  2.32  18.6     1     1     4     1
 4 Hornet 4 D…  21.4     6  258    110  3.08  3.22  19.4     1     0     3     1
 5 Hornet Spo…  18.7     8  360    175  3.15  3.44  17.0     0     0     3     2
 6 Valiant      18.1     6  225    105  2.76  3.46  20.2     1     0     3     1
 7 Duster 360   14.3     8  360    245  3.21  3.57  15.8     0     0     3     4
 8 Merc 240D    24.4     4  147.    62  3.69  3.19  20       1     0     4     2
 9 Merc 230     22.8     4  141.    95  3.92  3.15  22.9     1     0     4     2
10 Merc 280     19.2     6  168.   123  3.92  3.44  18.3     1     0     4     4
# ℹ 22 more rows
…
