…
library(cranlogs)
dl <- cran_downloads(when = "last-week", packages = pkg)
## curl shouldn't be here
dl <- dl %>%
  filter(package != "curl")

dl %>%
  count(package, wt = count) %>%
  arrange(desc(n)) %>%
  mutate(
    prop = n / sum(n),
    cum_prop = cumsum(prop)
  ) %>%
  print(n = 20)
#> # A tibble: 96 x 4
#>    package         n    prop cum_prop
#>    <chr>       <dbl>   <dbl>    <dbl>
#>  1 readxl      79375 0.657      0.657
#>  2 xgboost      9159 0.0758     0.732
#>  3 DiagrammeR   5355 0.0443     0.777
#>  4 bsts         2764 0.0229     0.800
#>  5 prophet      2726 0.0226     0.822
#>  6 data.tree    2296 0.0190     0.841
#>  7 feather      2080 0.0172     0.858
#>  8 timetk       1838 0.0152     0.874
#>  9 janitor      1669 0.0138     0.887
#> 10 tidyquant    1434 0.0119     0.899
#> 11 fastDummies   727 0.00601    0.905
#> 12 naniar        708 0.00586    0.911
#> 13 corrr         634 0.00525    0.916
#> 14 purrrlyr      570 0.00472    0.921
#> 15 tibbletime    554 0.00458    0.926
#> 16 ritis         534 0.00442    0.930
#> 17 tidygraph     478 0.00395    0.934
#> 18 sweep         407 0.00337    0.937
#> 19 anomalize     374 0.00309    0.941
#> 20 tidytree      371 0.00307    0.944
#> # … with 76 more rows
```
