…
# taxa

Version: 0.1.0

## In both

*   checking examples ... ERROR
    ```
    ...
      4 data sets:
        info:
          # A tibble: 4 x 4
            name   n_legs dangerous taxon_id
            <fctr>  <dbl> <lgl>     <chr>   
          1 cat      4.00 F         n       
          2 mole     4.00 F         o       
          3 tomato   0    F         q       
          # ... with 1 more row
…
