…
- max_footer_lines:

  Maximum number of footer lines. If `NULL`, the `max_footer_lines`
  [option](https://pillar.r-lib.org/reference/pillar_options.html) is
  used.

## Examples

``` r
print(as_tibble(mtcars))
#> # A tibble: 32 × 11
#>      mpg   cyl  disp    hp  drat    wt  qsec    vs    am  gear  carb
#>    <dbl> <dbl> <dbl> <dbl> <dbl> <dbl> <dbl> <dbl> <dbl> <dbl> <dbl>
#>  1  21       6  160    110  3.9   2.62  16.5     0     1     4     4
#>  2  21       6  160    110  3.9   2.88  17.0     0     1     4     4
#>  3  22.8     4  108     93  3.85  2.32  18.6     1     1     4     1
#>  4  21.4     6  258    110  3.08  3.22  19.4     1     0     3     1
#>  5  18.7     8  360    175  3.15  3.44  17.0     0     0     3     2
#>  6  18.1     6  225    105  2.76  3.46  20.2     1     0     3     1
#>  7  14.3     8  360    245  3.21  3.57  15.8     0     0     3     4
#>  8  24.4     4  147.    62  3.69  3.19  20       1     0     4     2
#>  9  22.8     4  141.    95  3.92  3.15  22.9     1     0     4     2
#> 10  19.2     6  168.   123  3.92  3.44  18.3     1     0     4     4
#> # ℹ 22 more rows
print(as_tibble(mtcars), n = 1)
#> # A tibble: 32 × 11
#>     mpg   cyl  disp    hp  drat    wt  qsec    vs    am  gear  carb
#>   <dbl> <dbl> <dbl> <dbl> <dbl> <dbl> <dbl> <dbl> <dbl> <dbl> <dbl>
#> 1    21     6   160   110   3.9  2.62  16.5     0     1     4     4
#> # ℹ 31 more rows
print(as_tibble(mtcars), n = 3)
#> # A tibble: 32 × 11
#>     mpg   cyl  disp    hp  drat    wt  qsec    vs    am  gear  carb
#>   <dbl> <dbl> <dbl> <dbl> <dbl> <dbl> <dbl> <dbl> <dbl> <dbl> <dbl>
#> 1  21       6   160   110  3.9   2.62  16.5     0     1     4     4
#> 2  21       6   160   110  3.9   2.88  17.0     0     1     4     4
#> 3  22.8     4   108    93  3.85  2.32  18.6     1     1     4     1
#> # ℹ 29 more rows
…
#> • `gear` -> `gear...10`
#> • `carb` -> `carb...11`
#> • `mpg` -> `mpg...12`
#> • `cyl` -> `cyl...13`
#> • `disp` -> `disp...14`
#> • `hp` -> `hp...15`
#> • `drat` -> `drat...16`
#> • `wt` -> `wt...17`
#> • `qsec` -> `qsec...18`
#> • `vs` -> `vs...19`
#> • `am` -> `am...20`
#> • `gear` -> `gear...21`
#> • `carb` -> `carb...22`
print(mtcars2, n = 25, max_extra_cols = 3)
#> # A tibble: 32 × 22
#>    mpg...1 cyl...2 disp...3 hp...4 drat...5 wt...6 qsec...7 vs...8
#>      <dbl>   <dbl>    <dbl>  <dbl>    <dbl>  <dbl>    <dbl>  <dbl>
#>  1    21         6    160      110     3.9    2.62     16.5      0
#>  2    21         6    160      110     3.9    2.88     17.0      0
#>  3    22.8       4    108       93     3.85   2.32     18.6      1
#>  4    21.4       6    258      110     3.08   3.22     19.4      1
#>  5    18.7       8    360      175     3.15   3.44     17.0      0
#>  6    18.1       6    225      105     2.76   3.46     20.2      1
#>  7    14.3       8    360      245     3.21   3.57     15.8      0
#>  8    24.4       4    147.      62     3.69   3.19     20        1
#>  9    22.8       4    141.      95     3.92   3.15     22.9      1
#> 10    19.2       6    168.     123     3.92   3.44     18.3      1
#> 11    17.8       6    168.     123     3.92   3.44     18.9      1
#> 12    16.4       8    276.     180     3.07   4.07     17.4      0
#> 13    17.3       8    276.     180     3.07   3.73     17.6      0
#> 14    15.2       8    276.     180     3.07   3.78     18        0
#> 15    10.4       8    472      205     2.93   5.25     18.0      0
#> 16    10.4       8    460      215     3      5.42     17.8      0
#> 17    14.7       8    440      230     3.23   5.34     17.4      0
#> 18    32.4       4     78.7     66     4.08   2.2      19.5      1
#> 19    30.4       4     75.7     52     4.93   1.62     18.5      1
#> 20    33.9       4     71.1     65     4.22   1.84     19.9      1
#> 21    21.5       4    120.      97     3.7    2.46     20.0      1
#> 22    15.5       8    318      150     2.76   3.52     16.9      0
#> 23    15.2       8    304      150     3.15   3.44     17.3      0
#> 24    13.3       8    350      245     3.73   3.84     15.4      0
#> 25    19.2       8    400      175     3.08   3.84     17.0      0
#> # ℹ 7 more rows
#> # ℹ 14 more variables: am...9 <dbl>, gear...10 <dbl>, carb...11 <dbl>,
#> #   …

print(nycflights13::flights, max_footer_lines = 1)
#> # A tibble: 336,776 × 19
#>     year month   day dep_time sched_dep_time dep_delay arr_time
#>    <int> <int> <int>    <int>          <int>     <dbl>    <int>
#>  1  2013     1     1      517            515         2      830
#>  2  2013     1     1      533            529         4      850
#>  3  2013     1     1      542            540         2      923
#>  4  2013     1     1      544            545        -1     1004
#>  5  2013     1     1      554            600        -6      812
#>  6  2013     1     1      554            558        -4      740
#>  7  2013     1     1      555            600        -5      913
#>  8  2013     1     1      557            600        -3      709
#>  9  2013     1     1      557            600        -3      838
#> 10  2013     1     1      558            600        -2      753
#> # ℹ 336,766 more rows
print(nycflights13::flights, width = Inf)
#> # A tibble: 336,776 × 19
#>     year month   day dep_time sched_dep_time dep_delay arr_time
#>    <int> <int> <int>    <int>          <int>     <dbl>    <int>
#>  1  2013     1     1      517            515         2      830
#>  2  2013     1     1      533            529         4      850
#>  3  2013     1     1      542            540         2      923
#>  4  2013     1     1      544            545        -1     1004
#>  5  2013     1     1      554            600        -6      812
#>  6  2013     1     1      554            558        -4      740
#>  7  2013     1     1      555            600        -5      913
#>  8  2013     1     1      557            600        -3      709
#>  9  2013     1     1      557            600        -3      838
#> 10  2013     1     1      558            600        -2      753
#>    sched_arr_time arr_delay carrier flight tailnum origin dest 
#>             <int>     <dbl> <chr>    <int> <chr>   <chr>  <chr>
#>  1            819        11 UA        1545 N14228  EWR    IAH  
#>  2            830        20 UA        1714 N24211  LGA    IAH  
#>  3            850        33 AA        1141 N619AA  JFK    MIA  
#>  4           1022       -18 B6         725 N804JB  JFK    BQN  
#>  5            837       -25 DL         461 N668DN  LGA    ATL  
#>  6            728        12 UA        1696 N39463  EWR    ORD  
#>  7            854        19 B6         507 N516JB  EWR    FLL  
#>  8            723       -14 EV        5708 N829AS  LGA    IAD  
#>  9            846        -8 B6          79 N593JB  JFK    MCO  
#> 10            745         8 AA         301 N3ALAA  LGA    ORD  
#>    air_time distance  hour minute time_hour          
#>       <dbl>    <dbl> <dbl>  <dbl> <dttm>             
#>  1      227     1400     5     15 2013-01-01 05:00:00
#>  2      227     1416     5     29 2013-01-01 05:00:00
#>  3      160     1089     5     40 2013-01-01 05:00:00
#>  4      183     1576     5     45 2013-01-01 05:00:00
#>  5      116      762     6      0 2013-01-01 06:00:00
#>  6      150      719     5     58 2013-01-01 05:00:00
#>  7      158     1065     6      0 2013-01-01 06:00:00
#>  8       53      229     6      0 2013-01-01 06:00:00
#>  9      140      944     6      0 2013-01-01 06:00:00
#> 10      138      733     6      0 2013-01-01 06:00:00
#> # ℹ 336,766 more rows
```
