…
## Creating

`tibble()` is a nice way to create data frames.
It encapsulates best practices for data frames:

  * It never changes an input's type (i.e., no more `stringsAsFactors = FALSE`!).

    
    ```r
    tibble(x = letters)
    #> # A tibble: 26 x 1
    #>    x    
    #>    <chr>
    #>  1 a    
    #>  2 b    
    #>  3 c    
    #>  4 d    
    #>  5 e    
    #>  6 f    
    #>  7 g    
    #>  8 h    
    #>  9 i    
    #> 10 j    
    #> # ... with 16 more rows
    ```
…
The speed of `as.data.frame()` is not usually a bottleneck when used interactively, but can be a problem when combining thousands of messy inputs into one tidy data frame.

## Tibbles vs data frames

There are three key differences between tibbles and data frames: printing, subsetting, and recycling rules.

### Printing

When you print a tibble, it only shows the first ten rows and all the columns that fit on one screen.
It also prints an abbreviated description of the column type, and uses font styles and color for highlighting:


```r
tibble(x = -5:100, y = 123.456 * (3 ^ x))
#> # A tibble: 106 x 2
#>        x         y
#>    <int>     <dbl>
#>  1    -5     0.508
#>  2    -4     1.52 
#>  3    -3     4.57 
#>  4    -2    13.7  
#>  5    -1    41.2  
#>  6     0   123.   
#>  7     1   370.   
#>  8     2  1111.   
#>  9     3  3333.   
#> 10     4 10000.   
#> # ... with 96 more rows
```
…
