Controlling display of numbers
…
Rule-based number formatting

Currently, formatting must be applied manually for each column. The
following pattern may help doing this consistently for all columns in a
tibble, or for some columns based on their name.

library(dplyr, warn.conflicts = FALSE)

markets <-
  as_tibble(EuStockMarkets) %>%
  mutate(time = time(EuStockMarkets), .before = 1)

markets
#> # A tibble: 1,860 × 5
#>        time     DAX    SMI    CAC   FTSE
#>       <dbl>   <dbl>  <dbl>  <dbl>  <dbl>
#>  1 1991.496 1628.75 1678.1 1772.8 2443.6
#>  2 1991.5   1613.63 1688.5 1750.5 2460.2
#>  3 1991.504 1606.51 1678.6 1718   2448.2
#>  4 1991.508 1621.04 1684.1 1708.1 2470.4
#>  5 1991.512 1618.16 1686.6 1723.1 2484.7
#>  6 1991.515 1610.61 1671.6 1714.3 2466.8
#>  7 1991.519 1630.75 1682.9 1734.5 2487.9
#>  8 1991.523 1640.17 1703.6 1757.4 2508.4
#>  9 1991.527 1635.47 1697.5 1754   2510.5
#> 10 1991.531 1645.89 1716.3 1754.3 2497.4
#> # ℹ 1,850 more rows
markets %>%
  mutate(across(-time, ~ num(.x, digits = 3)))
#> # A tibble: 1,860 × 5
#>        time       DAX       SMI       CAC      FTSE
#>       <dbl> <num:.3!> <num:.3!> <num:.3!> <num:.3!>
#>  1 1991.496  1628.750  1678.100  1772.800  2443.600
#>  2 1991.5    1613.630  1688.500  1750.500  2460.200
#>  3 1991.504  1606.510  1678.600  1718.000  2448.200
#>  4 1991.508  1621.040  1684.100  1708.100  2470.400
#>  5 1991.512  1618.160  1686.600  1723.100  2484.700
#>  6 1991.515  1610.610  1671.600  1714.300  2466.800
#>  7 1991.519  1630.750  1682.900  1734.500  2487.900
#>  8 1991.523  1640.170  1703.600  1757.400  2508.400
#>  9 1991.527  1635.470  1697.500  1754.000  2510.500
#> 10 1991.531  1645.890  1716.300  1754.300  2497.400
#> # ℹ 1,850 more rows
…
