# A tibble: 3 × 9
      a     b     c     d
  <dbl> <int> <lgl> <chr>
1     1     1  TRUE     a
# ... with 2 more rows, and 5
#   more variables: e <fctr>,
#   f <date>, ...
