Tools for describing matrices — print.tbl_df • tibble
…
print(as_tibble(mtcars))
#> # A tibble: 32 × 11
#>      mpg   cyl  disp    hp  drat    wt  qsec    vs    am  gear  carb
#> *  <dbl> <dbl> <dbl> <dbl> <dbl> <dbl> <dbl> <dbl> <dbl> <dbl> <dbl>
#> 1   21.0     6 160.0   110  3.90 2.620 16.46     0     1     4     4
#> 2   21.0     6 160.0   110  3.90 2.875 17.02     0     1     4     4
#> 3   22.8     4 108.0    93  3.85 2.320 18.61     1     1     4     1
#> 4   21.4     6 258.0   110  3.08 3.215 19.44     1     0     3     1
#> 5   18.7     8 360.0   175  3.15 3.440 17.02     0     0     3     2
#> 6   18.1     6 225.0   105  2.76 3.460 20.22     1     0     3     1
#> 7   14.3     8 360.0   245  3.21 3.570 15.84     0     0     3     4
#> 8   24.4     4 146.7    62  3.69 3.190 20.00     1     0     4     2
#> 9   22.8     4 140.8    95  3.92 3.150 22.90     1     0     4     2
#> 10  19.2     6 167.6   123  3.92 3.440 18.30     1     0     4     4
#> # ... with 22 more rows
print(as_tibble(mtcars), n = 1)
#> # A tibble: 32 × 11
#>     mpg   cyl  disp    hp  drat    wt  qsec    vs    am  gear  carb
#> * <dbl> <dbl> <dbl> <dbl> <dbl> <dbl> <dbl> <dbl> <dbl> <dbl> <dbl>
#> 1    21     6   160   110   3.9  2.62 16.46     0     1     4     4
#> # ... with 31 more rows
print(as_tibble(mtcars), n = 3)
#> # A tibble: 32 × 11
#>     mpg   cyl  disp    hp  drat    wt  qsec    vs    am  gear  carb
#> * <dbl> <dbl> <dbl> <dbl> <dbl> <dbl> <dbl> <dbl> <dbl> <dbl> <dbl>
#> 1  21.0     6   160   110  3.90 2.620 16.46     0     1     4     4
#> 2  21.0     6   160   110  3.90 2.875 17.02     0     1     4     4
#> 3  22.8     4   108    93  3.85 2.320 18.61     1     1     4     1
#> # ... with 29 more rows
…
if (!requireNamespace("nycflights13", quietly = TRUE))
  stop("Please install the nycflights13 package to run the rest of this example")

print(nycflights13::flights, n_extra = 2)
#> # A tibble: 336,776 × 19
#>     year month   day dep_time sched_dep_time dep_delay arr_time sched_arr_time
#>    <int> <int> <int>    <int>          <int>     <dbl>    <int>          <int>
#> 1   2013     1     1      517            515         2      830            819
#> 2   2013     1     1      533            529         4      850            830
#> 3   2013     1     1      542            540         2      923            850
#> 4   2013     1     1      544            545        -1     1004           1022
#> 5   2013     1     1      554            600        -6      812            837
#> 6   2013     1     1      554            558        -4      740            728
#> 7   2013     1     1      555            600        -5      913            854
#> 8   2013     1     1      557            600        -3      709            723
#> 9   2013     1     1      557            600        -3      838            846
#> 10  2013     1     1      558            600        -2      753            745
#> # ... with 336,766 more rows, and 11 more variables: arr_delay <dbl>,
#> #   carrier <chr>, ...
print(nycflights13::flights, width = Inf)
#> # A tibble: 336,776 × 19
#>     year month   day dep_time sched_dep_time dep_delay arr_time sched_arr_time
#>    <int> <int> <int>    <int>          <int>     <dbl>    <int>          <int>
#> 1   2013     1     1      517            515         2      830            819
#> 2   2013     1     1      533            529         4      850            830
#> 3   2013     1     1      542            540         2      923            850
#> 4   2013     1     1      544            545        -1     1004           1022
#> 5   2013     1     1      554            600        -6      812            837
#> 6   2013     1     1      554            558        -4      740            728
#> 7   2013     1     1      555            600        -5      913            854
#> 8   2013     1     1      557            600        -3      709            723
#> 9   2013     1     1      557            600        -3      838            846
#> 10  2013     1     1      558            600        -2      753            745
#>    arr_delay carrier flight tailnum origin  dest air_time distance  hour minute
#>        <dbl>   <chr>  <int>   <chr>  <chr> <chr>    <dbl>    <dbl> <dbl>  <dbl>
#> 1         11      UA   1545  N14228    EWR   IAH      227     1400     5     15
#> 2         20      UA   1714  N24211    LGA   IAH      227     1416     5     29
#> 3         33      AA   1141  N619AA    JFK   MIA      160     1089     5     40
#> 4        -18      B6    725  N804JB    JFK   BQN      183     1576     5     45
#> 5        -25      DL    461  N668DN    LGA   ATL      116      762     6      0
#> 6         12      UA   1696  N39463    EWR   ORD      150      719     5     58
#> 7         19      B6    507  N516JB    EWR   FLL      158     1065     6      0
#> 8        -14      EV   5708  N829AS    LGA   IAD       53      229     6      0
#> 9         -8      B6     79  N593JB    JFK   MCO      140      944     6      0
#> 10         8      AA    301  N3ALAA    LGA   ORD      138      733     6      0
#>              time_hour
#>                 <dttm>
#> 1  2013-01-01 05:00:00
#> 2  2013-01-01 05:00:00
#> 3  2013-01-01 05:00:00
#> 4  2013-01-01 05:00:00
#> 5  2013-01-01 06:00:00
#> 6  2013-01-01 05:00:00
#> 7  2013-01-01 06:00:00
#> 8  2013-01-01 06:00:00
#> 9  2013-01-01 06:00:00
#> 10 2013-01-01 06:00:00
#> # ... with 336,766 more rows
…
