Tibbles • tibble
…
      Source: vignettes/tibble.Rmd
      tibble.Rmd

Tibbles are a modern take on data frames. They keep the features that have stood the test of time, and drop the features that used to be convenient but are now frustrating ( i.e. converting character vectors to factors).

Creating

tibble() is a nice way to create data frames. It encapsulates best practices for data frames:

It never changes an input’s type (i.e., no more stringsAsFactors = FALSE!).

tibble(x = letters)

#> # A tibble: 26 x 1
#>    x    
#>    <chr>
#>  1 a    
#>  2 b    
#>  3 c    
#>  4 d    
#>  5 e    
#>  6 f    
#>  7 g    
#>  8 h    
#>  9 i    
#> 10 j    
#> # … with 16 more rows
…
The speed of as.data.frame() is not usually a bottleneck when used interactively, but can be a problem when combining thousands of messy inputs into one tidy data frame.

Tibbles vs data frames

There are three key differences between tibbles and data frames: printing, subsetting, and recycling rules.

Printing

When you print a tibble, it only shows the first ten rows and all the columns that fit on one screen. It also prints an abbreviated description of the column type, and uses font styles and color for highlighting:

tibble(x = -5:1000)

#> # A tibble: 1,006 x 1
#>        x
#>    <int>
#>  1    -5
#>  2    -4
#>  3    -3
#>  4    -2
#>  5    -1
#>  6     0
#>  7     1
#>  8     2
#>  9     3
#> 10     4
#> # … with 996 more rows
…
